Trabajo_1_R
…
Universitario con ttulo

Posgrado sin ttulo

Posgrado con ttulo

Anlisis descriptivo

Lectura de la base de datos:

datos <- read_excel("Datos.xlsx")
datos

## # A tibble: 145,898 x 17
##    DIRECTORIO ORDEN P6020 P6040 relacion  P756 P6080 P2057 satisfaccion vivienda
##         <dbl> <dbl> <dbl> <dbl>    <dbl> <dbl> <dbl> <dbl>        <dbl>    <dbl>
##  1    7120001     1     2    44        2     1     6     2          9.6        2
##  2    7120001     2     1    48        2     2     1     2          7          2
##  3    7120002     1     1    61        6     1     5     2          6.6        1
##  4    7120002     2     2    54        6     2     5     2          6.4        1
##  5    7120002     6     1    28        1     1     5     2          5.8        1
##  6    7120002     7     2    19        1     1     5     2          7.2        1
##  7    7120002     9     1    31        4     1     5     2          7.4        1
##  8    7120005     1     1    79        6     2     6     2          6.2        1
##  9    7120006     1     2    37        5     2     6     2          5.6        2
## 10    7120007     1     1    72        5     1     5     2          8          2
## # ... with 145,888 more rows, and 7 more variables: P8520S1 <dbl>,
## #   P8520S5 <dbl>, P8520S3 <dbl>, P8520S4 <dbl>, P6160 <dbl>, P8587 <dbl>,
## #   hijos <dbl>
…
